module movies-go

go 1.15

require (
	github.com/PuerkitoBio/goquery v1.7.1 // indirect
	github.com/antchfx/htmlquery v1.2.3 // indirect
	github.com/antchfx/xmlquery v1.3.6 // indirect
	github.com/dgrijalva/jwt-go v3.2.0+incompatible
	github.com/gobwas/glob v0.2.3 // indirect
	github.com/gocolly/colly v1.2.0
	github.com/gorilla/mux v1.8.0
	github.com/kennygrant/sanitize v1.2.4 // indirect
	github.com/saintfish/chardet v0.0.0-20120816061221-3af4cd4741ca // indirect
	github.com/temoto/robotstxt v1.1.2 // indirect
	github.com/xrash/smetrics v0.0.0-20201216005158-039620a65673
	golang.org/x/net v0.0.0-20210716203947-853a461950ff // indirect
	google.golang.org/appengine v1.6.7 // indirect
	gorm.io/driver/mysql v1.1.1
	gorm.io/gorm v1.21.9

)
